shsorbas,sharan
5,0.802755347222227
5,0.793311689814819
5.23871425007071,0.840531944444448
4.53005208206984,0.897196643518524
4.70093748299405,0.821643449074079
4.59468748498087,0.802755740740746
4.89130207182219,0.859420046296301
5.09494791816299,0.878308541666671
5.08078125615915,0.812199791666671
4.98869788910573,0.783866851851857
4.97364580708866,0.764979537037041
4.92406248813495,0.746090648148152
4.97453125038495,0.73664581018519
5.17109375602255,0.793311296296301
5.17109375990306,0.727201759259263
5.20208332454786,0.81220018518519
5.12416665830339,0.916084745370376
4.86739584788059,0.878308541666672
4.6256770612672,0.802755740740744
4.48046875341485,0.679981504629633
4.52828123234212,0.755534699074078
5.02765626879409,0.793311689814819
5.23484371369705,0.746090254629633
5.0453645720457,0.7933112962963
4.85677081548298,0.812199398148152
4.99223961184422,0.831087500000005
5.04182293855896,0.92552918981482
4.94885415149232,1.32218444444445
4.99666665370266,1.06719231481482
5.04624999593943,0.982193888888895
5.16755209537223,0.897196643518524
5.24369791382924,0.802754953703708
5.11265620977307,0.755534305555561
5.33578124595806,0.746090254629634
5.28442708697791,0.746090648148153
5.15427082621803,0.689425555555559
4.80630204935248,0.698869606481485
4.26586209956942,0.802755740740746
5.01083328078191,0.934973634259263
5.48895834945142,0.972750231481486
5.43229167039196,0.906641087962969
5.20208332066735,0.793310902777782
4.9364583256344,0.698870000000003
4.81604162293176,0.689425949074078
4.90104169584811,0.746090648148152
4.65666667247812,0.64220530092593
4.67791661309699,0.783867245370374
4.76291660840313,0.840532337962967
5.056875012815,0.821643055555561
5.41104171425104,0.80275456018519
5.38979166497787,0.868864097222227
5.20916666525106,0.802754953703709
5.25166667066514,0.802754953703707
5.14541662608584,0.736646203703708
5.06041670838992,0.632761250000003
4.81604162293176,0.698869606481483
4.75229163033267,0.585539814814819
5.10645833176871,0.708313657407412
5.23041668348014,0.613872361111116
5.05333337932825,0.698870000000003
4.9966666692247,0.651648958333337
5.21624999431272,0.538318773148154
6.31416663527489,0.406100486111113
6.88437502831221,0.443877476851855
5.9422916577508,0.472210023148152
5.45708329106371,0.538318773148153
5.26229169530173,0.566651319444449
5.30125003618499,0.661093402777782
5.31895838988324,0.651648958333337
5.18083333348234,0.651648958333338
5.00020830271145,0.55720766203704
5.17020835541189,0.566651319444449
5.22333332337439,0.56665131944445
5.12062498989205,0.538318379629636
5.10291660514971,0.528874722222227
4.95416666381061,0.424988587962966
4.97895833104849,0.443877083333338
4.57874997518957,0.443877870370374
4.49374999540547,0.453321134259264
4.47249999269843,0.491097731481486
4.9470833192269,0.519430277777785
5.01791668745379,0.689425555555558
5.26583337535461,0.613872361111114
5.34020831498007,0.462765578703709
5.42166666127741,1.60550912037038
4.96125000839432,14.0529150231481
4.49374997988343,12.4379630324074
4.40520832004646,14.0623590740741
11.757708263273,14.5062349768518
25.7472914954026,19.757188287037
24.8902082443237,21.8254602314814
23.3531248445312,19.9649605555555
21.8337499847015,19.1149857407407
20.4737500598033,18.5672237037037
19.1810417920351,18.1894585185185
18.0795834710201,17.9250215509259
17.5235415498416,17.7172492824074
17.2295831764738,17.5094778009259
16.6770831371347,17.5472547916667
16.2060416614016,17.5850317824074
15.827083401382,17.5755869444444
15.3560416772962,17.6511413194444
15.2958332871397,17.5944758333333
14.8318749542038,17.5944762268519
14.5591667542855,17.5850321759259
14.1554166252414,17.4244805555555
13.7587498873472,17.4244809490741
13.6879167209069,17.3772603009259
13.6029167721669,17.3678158564815
13.7587501977881,17.1694884259259
13.4612501288454,19.5021965509259
17.6793749754628,19.5305290972222
19.3297916402419,19.0205444444444
17.4031249557932,18.8599936111111
16.34416654706,18.7844408101852
16.1493750909964,18.6050003009259
17.9662503302097,18.8505495601851
20.2470831573009,19.5305298842592
19.8610416303078,19.3888671527777
17.4385416011016,19.1905393287037
15.6535417462389,18.9733237962963
15.441041563948,20.4277241666666
22.464166705807,21.2210354629629
20.7747915138801,21.3249196296296
19.1775000964602,21.9293459722222
18.6249999329448,22.9682049537037
17.6652085036039,24.0542837962963
16.659374969701,24.2998306944444
25.4179164146384,24.4320505555555
26.6752084096273,24.4509386574074
25.4674999043346,25.2820245833333
24.8831249152621,26.1981073611111
24.1677083695928,26.08477875
24.6387504662077,26.4058796296296
26.873541623354,26.2169954629629
25.1381249477466,26.1319993981481
24.6068750197689,26.1981081481481
25.4285415634513,26.2169954629629
26.0200002541145,26.1981073611111
24.4970832020044,26.1508859259259
23.5018750031789,26.0658914351851
23.0556250239412,26.0186684259259
22.1454165875912,25.9147842592592
21.546875188748,25.9053382407407
21.1147914951046,25.8864517129629
20.7889584203561,25.8203421759259
20.3710418194533,25.8014548611111
19.9531248460213,25.8108985185185
19.7547916322947,25.9903366666666
19.4289583712816,25.7636770833333
18.1256250167886,25.6314587962963
17.1516666809718,25.60312625
16.4752082899213,25.5653492592592
16.3831250121196,25.4047984259259
16.1139581352472,25.1781380555555
15.6677085285386,25.1875825
15.4587499797344,25.2914682407407
15.0691665088137,25.2348031481481
14.8495834320784,25.1403610648148
15.3631249442697,25.2725785648148
15.4162499432763,25.2725793518518
15.2108332142234,25.0459197685185
15.2852082625032,24.9420356018518
15.1152081787586,24.9420340277778
14.8956248536706,24.9609221296296
14.7468750054638,24.9609229166666
14.5520833631357,25.0459181944444
14.6972917641203,25.1498047222222
14.6299999207258,25.083693611111
14.3431250626842,25.0553618518518
14.2900001257658,24.9420348148148
14.1377082715432,25.0081435648148
13.939374871552,25.0081427777778
13.9039582262437,24.9609221296296
13.7800000607967,24.9514784722222
13.6064582193891,24.9420348148148
13.4152083347241,24.8098157407407
13.1283336008589,24.9042586111111
12.9902083116273,24.9609237037037
12.6997917269667,24.8570371759259
12.512083320568,24.8003720833333
12.4129164343079,24.7531514351852
12.3562498328586,24.7909284259259
12.1189583092928,24.7342633333333
12.2358332077662,24.9514776851852
12.0162499447664,24.8948141666666
11.8639582768083,24.7814831944444
11.6833333546917,24.6398204629629
11.5310419040422,24.5925998148148
11.4141667882601,24.5642672685185
11.2406249778966,24.5737109259259
11.006874901553,24.6492641203703
10.7270832794408,24.6209331481481
10.6739582804342,24.7153736574074
10.5181250100334,24.70593
10.3516667460402,24.6492664814814
10.096666837732,24.6587093518518
9.97270833080013,24.5170466203703
9.71770823622743,24.5264910648148
9.51583335796992,24.5548236111111
9.68937495102485,24.6114902777777
9.78145813569426,24.6870418981481
10.8899998789032,25.3292452314815
12.4052671194076,25.38590875
12.1154000672201,25.3670214351851
11.6516600673397,25.5370159259259
11.5631599289676,25.7636762962963
11.8215800573428,25.8770072685185
11.2056199771663,25.801453287037
11.3755400913457,25.8392310648148
11.0640200165411,25.7164564351852
10.8693200473984,25.8770080555555
10.2675199819108,25.7542326388889
10.0338799258073,25.735344537037
9.6090800439318,25.7164564351852
9.17720003053546,25.6597913425926
8.86567989364266,25.5842373611111
7.98775985216101,25.4142436574074
7.42136000966032,25.3859087499999
7.45675998429458,25.3764658796296
7.32931991418203,25.3009118981481
7.00010006936888,25.1309166203703
6.58591998120149,25.0364761111111
6.46202003893753,24.9892546759259
6.13279999233782,24.970366574074
6.41953994830449,25.2725793518518
5.90977999381721,25.0553642129629
5.05881842512351,25.0931404166666
5,25.055365
5,24.9703673611111
5,24.9231467129629
6,24.8570363888889
6,24.9420348148148
6,24.8475943055555
6,24.8570371759259
6,24.7248188888889
6,24.8192593981481
6,24.970366574074
6,24.6587085648148
6,24.5831561574074
6,24.5076029629629
6,24.4792696296296
21.6521605849266,24.6114887037037
20.7494599123796,24.8192593981481
18.2962400217851,24.7909284259259
17.163440088431,24.7814824074074
20.4697998861472,24.6020458333333
25.6346601371964,25.0553634259259
24.1407799844941,25.1592483796296
21.4008199051022,25.2631356944444
18.9476000765959,25.9525604629629
16.7244799435139,26.6892050925926
15.83947998782,26.5758749074074
15.0960800548395,26.5664296759259
14.749160160621,26.4625447222222
15.5952200293541,26.1981073611111
14.4907400012016,26.0092255555555
13.9668200785915,26.0942224074074
13.8889399667581,25.9808922222222
13.8181402037541,26.1603311574074
14.1084200392167,26.3775462962963
13.7508800874154,26.2453287962963
14.8518199721972,26.415324074074
14.25002006193,26.3114383333333
13.9809800932805,26.1792184722222
13.5738800590237,26.283105
13.5455599054694,26.2453295833333
13.5243201317886,26.1131120833333
13.3190000429749,26.3303272222222
12.6463999971747,27.8791681018518
12.1083199977875,27.5958442129629
11.396780051291,27.444737824074
11.0604799663027,27.3880727314814
9.49580001955231,27.8508355555555
9.66218002140522,29.6168939351852
8.94710005571445,28.6158119444444
7.89571994294723,28.4458198148148
7.50632003570596,28.5213722222222
7.0248800329864,28.7291437037037
7.67978001385927,28.27582375
7.52048005039493,28.0869403703703
7.4213600717485,27.9736101851851
7.26206004619598,27.7563950462963
6.69212002928058,27.66195375
6.58238000857333,27.5297338888889
6.44786005529265,27.18030125
6.17174006377657,26.7836456018518
5.92040002035598,26.6608709722222
5.98412005541225,26.4530994907407
5.95226002236207,26.3586597685185
5.78942000865936,26.1792192592592
5.56994001381099,25.8958945833333
5.47790004250904,25.4520198611111
4.92920003210505,25.0836967592592
5.49206004167597,24.8759252777777
4.87255997334917,24.6209323611111
6.93991999141872,24.3753846759259
7.58419996127486,24.1015036574074
11.1065000450859,23.7615146759259
21.2379798913995,23.6859606944444
18.9511398474375,24.0920592129629
19.5812602837881,23.7331805555555
18.2572999969125,24.5264902777777
20.0804000720382,24.7814847685185
20.2963400011261,24.7153752314814
17.6909000302355,24.6775958796296
16.3102999950449,24.5642680555555
15.6589400023222,24.3942735648148
15.2483000109593,24.0637266666666
14.9580201754967,23.7237368981481
14.3632999931773,23.4309685648148
12.9685401295622,23.1004224537037
11.1737600838145,22.8548739814814
9.60553993160526,22.4015548148148
8.59664001812538,21.9671229629629
7.66915995627642,21.5138030092592
7.69394009063641,21.0888163888888
7.0284199124823,21.4760268055555
7.50278004755576,22.977647824074
6.69565997086465,22.6187699537037
6.45140004344285,22.845429537037
6.39476006229719,23.1759756481481
5.72216001649698,23.2137526388888
5.43187999476989,23.1665319907407
16.3173801576098,23.128755787037
22.2893600662549,22.9493152777778
18.4696999688943,22.5809937499999
16.536860105892,22.1087856944444
16.1864001303911,21.6271331944444
15.3615798801184,21.2021473611111
15.1491799702247,20.8432679166666
14.7385401030381,20.3332844444444
14.2075400178631,20.0121819907407
12.4481599467496,20.4560559259259
11.0286199798187,19.7760771759259
9.3506599466006,19.3794227083333
8.33821998288234,18.9261027546296
7.35409993988772,18.5766689351851
6.80893999524415,18.189458125
6.68503997536997,17.9816866435185
6.02660002186894,18.1989021759259
5.83898006007075,17.5378115277778
5.48852000695964,17
5.44249999026457,17
5.58409999745588,17
5.61950000313421,17
5.62658001047869,16
5.58056002482772,16
5.21947999174396,16
5.14160003513098,16
5.0389400528123,15
4.93628003944953,15
4.60352002022167,15
4.34510002378374,15
4.70263998334606,14
4.52210002113134,14
4.70264001439015,14
4.56811999126027,14
4.62121997649471,13
4.83007999137044,13
4.76636001840234,13
4.49377996070931,13
4.52210001337031,12
4.43713994851957,12
4.43006000326325,12
4.43713995628059,12
4.53272002438704,11
4.79467997017006,11
4.72033998618523,11
4.76990002207458,10
4.55749999576559,10
4.50439994844297,10
4.34510001602272,9
4.31323999073356,9
4.98938000140091,9
5.26549997739494,8
4.56457999534905,8
5.08849998004735,7
4.84423997501532,7
5.10973993999263,6
4.83361999504268,6
4.66385385750428,6
4.35925997638454,5
4.18226002560307,5
4.30262001852194,5
4.41589998857429,6
4.6212200075388,6
4.37342000659555,6
4.47607998115321,5
4.66016003241142,5
4.74865996899704,4
4.58582003290455,4
4.16455999171982,3
4.20350001659244,3
4.04065999512871,2
4.15747999213636,2
4.04420002984504,2
4.29199999198317,2
4.55750003457069,2
4.73449996983012,2.12493802083334
4.59998000102739,1.73772740740741
4.87610005463163,1.65272937500001
4.64246002957225,1.6149531712963
4.39466004415105,1.51106743055556
4.51501999826481,1.48273488425927
4.48316001954178,1.39773724537038
4.30970005691051,1.39773724537038
4.28491996911665,1.40718168981482
4.60706002389391,1.41662613425927
4.69556002256771,1.43551423611112
4.58936002105474,1.4638463888889
4.50440005709728,1.5016225925926
4.39111992406348,2.44603909722223
4.57166011134783,2.50270418981482
4.53980003173153,1.8038357638889
4.31677997888376,1.63384166666667
4.49023999584218,1.6149531712963
4.62475998016695,1.58662062500001
4.86547999704877,1.56773173611112
4.74158003926277,1.51106703703704
5.11682002494733,1.54884324074075
4.72741999352972,1.35051620370371
5.05664004012942,1.30329555555556
5.04601999806861,1.39773763888889
4.98229994749029,1.38829358796297
4.80530001223087,1.35051738425927
4.9681399948895,1.36940548611112
4.74865998451908,1.30329555555556
4.58936002105474,1.78494805555556
4.60352005126576,1.71883930555556
4.53980001620948,1.51106703703704
4.67785998868445,1.35051699074075
4.49024004240831,1.34107293981482
6.52573994981746,1.3316288888889
10.1896399632096,1.32218444444445
10.5861200019717,1.3032963425926
15.825319973131,1.24663125000001
14.8057999710242,1.15218837962964
14.6040200566252,1.2088550462963
13.8287600750724,1.1333006712963
12.8163200803101,1.15218916666667
11.6233400379618,1.14274472222223
10.5861199709276,1.11441256944445
9.60554002473752,1.12385662037038
8.53645994017521,1.20885386574075
8.01253995547692,1.1899657638889
7.66561996812622,1.19940981481482
7.07798004150391,1.11441256944445
6.81247999891639,1.11441256944445
6.54343998370071,1.10496851851852
6.08323997197052,1.0955244675926
6.0301399944971,1.08608002314815
5.78942005522549,1.21829791666667
5.63719995940725,1.25607569444445
5.4708199420323,1.21829831018519
5.37878004834056,1.17107805555556
5.60888000763953,1.1899657638889
5.64782000146806,1.11441296296297
5.68322005371253,1.18052210648149
5.51684002081553,9.64249090277778
5.50621997875472,10.9174527314815
5.50268005269269,17.6889175231481
5.51683995872736,16.0267444907407
5.33629998875161,14.8840009490741
5.33276000060141,14.1379122685185
5.13806004698078,13.5145978240741
